<?xml version="1.0" encoding="iso-8859-1"?>
<!-- Generator: Adobe Illustrator 22.0.1, SVG Export Plug-In . SVG Version: 6.00 Build 0)  -->
<svg version="1.1" id="Layer_1" xmlns="http://www.w3.org/2000/svg" xmlns:xlink="http://www.w3.org/1999/xlink" x="0px" y="0px"
	 viewBox="0 0 80.962 53.771" style="enable-background:new 0 0 80.962 53.771;" xml:space="preserve">
<g>
	<defs>
		<rect id="SVGID_1_" y="0" width="80.962" height="53.771"/>
	</defs>
	<clipPath id="SVGID_2_">
		<use xlink:href="#SVGID_1_"  style="overflow:visible;"/>
	</clipPath>
	<path style="clip-path:url(#SVGID_2_);fill:#FF0038;" d="M11.138,0L14.5,3.364C8.218,9.647,4.756,18.001,4.756,26.886
		c0,8.886,3.462,17.24,9.744,23.524l-3.362,3.361C3.956,46.592,0,37.042,0,26.886S3.956,7.181,11.138,0"/>
	<path style="clip-path:url(#SVGID_2_);fill:#FF0038;" d="M20.848,9.832l3.364,3.363c-7.549,7.55-7.549,19.832,0,27.382
		l-3.364,3.362C11.446,34.536,11.446,19.236,20.848,9.832"/>
	<path style="clip-path:url(#SVGID_2_);fill:#003C58;" d="M69.824,53.771l-3.362-3.364c6.282-6.283,9.744-14.637,9.744-23.522
		c0-8.886-3.462-17.24-9.744-23.524L69.824,0c7.182,7.179,11.138,16.729,11.138,26.885S77.006,46.59,69.824,53.771"/>
	<path style="clip-path:url(#SVGID_2_);fill:#003C58;" d="M60.114,43.939l-3.364-3.363c7.549-7.55,7.549-19.832,0-27.382
		l3.364-3.362C69.516,19.235,69.516,34.535,60.114,43.939"/>
	<path style="clip-path:url(#SVGID_2_);fill:#003C58;" d="M50.361,34.308l-3.363-3.362c2.237-2.239,2.237-5.882,0-8.121l3.363-3.364
		C54.452,23.556,54.452,30.214,50.361,34.308"/>
	<path style="clip-path:url(#SVGID_2_);fill:#FF0038;" d="M30.601,19.463l3.363,3.362c-2.237,2.239-2.237,5.882,0,8.121
		l-3.363,3.364C26.51,30.215,26.51,23.557,30.601,19.463"/>
</g>
</svg>
