<?xml version="1.0" encoding="iso-8859-1"?>
<!-- Generator: Adobe Illustrator 22.0.1, SVG Export Plug-In . SVG Version: 6.00 Build 0)  -->
<svg version="1.1" id="Layer_1" xmlns="http://www.w3.org/2000/svg" xmlns:xlink="http://www.w3.org/1999/xlink" x="0px" y="0px"
	 viewBox="0 0 46.398 46.407" style="enable-background:new 0 0 46.398 46.407;" xml:space="preserve">
<g>
	<path style="fill:#FCC62D;" d="M41.602,23.368v0.992c0,5.547-9.313,10.039-20.801,10.039c-6.34,0-12.016-1.371-15.832-3.531
		C6.258,35.864,15,40,25.602,40c11.484,0,20.796-4.855,20.796-10.398C46.398,27.161,44.594,25.012,41.602,23.368"/>
	<path style="fill:#E4AF18;" d="M25.602,40C14.113,40,4.801,35.145,4.801,29.602v6.758c0,5.543,9.312,10.039,20.801,10.039
		c11.484,0,20.796-4.496,20.796-10.039v-6.758C46.398,35.145,37.086,40,25.602,40"/>
	<path style="fill:#CE9912;" d="M7.199,41.079c0.473,0.433,1.008,0.843,1.602,1.238v-6.633c-0.594-0.41-1.129-0.836-1.602-1.285
		V41.079z M7.199,41.079"/>
	<path style="fill:#CE9912;" d="M42.398,35.684v6.633c0.594-0.391,1.129-0.805,1.602-1.238v-6.68
		C43.527,34.848,42.992,35.274,42.398,35.684"/>
	<path style="fill:#CE9912;" d="M10.398,43.246c0.508,0.262,1.043,0.512,1.602,0.747v-6.555c-0.559-0.246-1.094-0.508-1.602-0.781
		V43.246z M10.398,43.246"/>
	<path style="fill:#CE9912;" d="M39.199,43.993c0.563-0.235,1.094-0.485,1.602-0.747v-6.589c-0.508,0.273-1.039,0.535-1.602,0.781
		V43.993z M39.199,43.993"/>
	<path style="fill:#CE9912;" d="M13.602,44.598c0.515,0.176,1.05,0.34,1.597,0.492v-6.488c-0.547-0.164-1.082-0.34-1.597-0.527
		V44.598z M13.602,44.598"/>
	<path style="fill:#CE9912;" d="M36,45.09c0.551-0.152,1.082-0.316,1.602-0.492v-6.523c-0.52,0.187-1.051,0.363-1.602,0.527V45.09z
		 M36,45.09"/>
	<path style="fill:#CE9912;" d="M17.602,45.668c0.519,0.106,1.054,0.2,1.597,0.286v-6.438c-0.543-0.09-1.078-0.191-1.597-0.305
		V45.668z M17.602,45.668"/>
	<path style="fill:#CE9912;" d="M32,45.954c0.543-0.086,1.078-0.18,1.602-0.286v-6.457c-0.524,0.114-1.059,0.215-1.602,0.305V45.954
		z M32,45.954"/>
	<path style="fill:#CE9912;" d="M22.398,46.321c0.528,0.039,1.063,0.066,1.602,0.086v-6.403c-0.539-0.023-1.074-0.05-1.602-0.093
		V46.321z M22.398,46.321"/>
	<path style="fill:#CE9912;" d="M27.199,46.407c0.539-0.02,1.074-0.047,1.602-0.086v-6.41c-0.528,0.043-1.063,0.07-1.602,0.093
		V46.407z M27.199,46.407"/>
	<path style="fill:#E4AF18;" d="M20.801,27.996C9.312,27.996,0,23.141,0,17.594v6.758c0,5.547,9.312,10.043,20.801,10.043
		c11.488,0,20.801-4.496,20.801-10.043v-6.758C41.602,23.141,32.289,27.996,20.801,27.996"/>
	<path style="fill:#CE9912;" d="M2.398,29.075C2.871,29.504,3.406,29.918,4,30.309v-6.633c-0.594-0.406-1.129-0.836-1.602-1.281
		V29.075z M2.398,29.075"/>
	<path style="fill:#CE9912;" d="M37.602,23.676v6.633c0.589-0.391,1.125-0.805,1.597-1.234v-6.68
		C38.73,22.84,38.195,23.27,37.602,23.676"/>
	<path style="fill:#CE9912;" d="M5.602,31.243c0.503,0.261,1.039,0.507,1.597,0.742V25.43c-0.558-0.246-1.094-0.504-1.597-0.777
		V31.243z M5.602,31.243"/>
	<path style="fill:#CE9912;" d="M34.398,31.985c0.563-0.235,1.098-0.481,1.602-0.742v-6.59c-0.504,0.273-1.039,0.531-1.602,0.777
		V31.985z M34.398,31.985"/>
	<path style="fill:#CE9912;" d="M8.801,32.59c0.515,0.176,1.051,0.344,1.597,0.496v-6.492c-0.546-0.164-1.082-0.336-1.597-0.523
		V32.59z M8.801,32.59"/>
	<path style="fill:#CE9912;" d="M31.199,33.086c0.551-0.152,1.082-0.32,1.602-0.496v-6.519c-0.52,0.187-1.051,0.359-1.602,0.523
		V33.086z M31.199,33.086"/>
	<path style="fill:#CE9912;" d="M12.801,33.661c0.523,0.105,1.054,0.203,1.597,0.285v-6.434c-0.543-0.09-1.074-0.191-1.597-0.305
		V33.661z M12.801,33.661"/>
	<path style="fill:#CE9912;" d="M27.199,33.946c0.543-0.082,1.078-0.18,1.602-0.282v-6.457c-0.524,0.114-1.059,0.215-1.602,0.305
		V33.946z M27.199,33.946"/>
	<path style="fill:#CE9912;" d="M17.602,34.313c0.523,0.043,1.058,0.066,1.597,0.086v-6.403c-0.539-0.019-1.074-0.046-1.597-0.089
		V34.313z M17.602,34.313"/>
	<path style="fill:#CE9912;" d="M22.398,34.399c0.54-0.02,1.075-0.043,1.602-0.086v-6.406c-0.527,0.039-1.062,0.07-1.602,0.089
		V34.399z M22.398,34.399"/>
	<path style="fill:#FFD949;" d="M41.055,26.641c-2.145,4.445-10.395,7.758-20.254,7.758c-3.684,0-7.141-0.461-10.141-1.274
		c2.902,1.973,8.067,3.649,14.942,3.649c10.945,0,17.597-4.25,17.597-7.172C43.199,28.625,42.449,27.59,41.055,26.641"/>
	<path style="fill:#FFD949;" d="M24.801,26.399C13.312,26.399,4,21.903,4,16.36v-4.524c-2.512,1.575-4,3.551-4,5.766
		C0,23.145,9.312,28,20.801,28c5.531,0,10.554-1.129,14.277-2.914C32.047,25.922,28.539,26.399,24.801,26.399"/>
	<path style="fill:#E4AF18;" d="M24.801,19.996C13.312,19.996,4,15.141,4,9.594v6.758c0,5.547,9.312,10.043,20.801,10.043
		c11.488,0,20.801-4.496,20.801-10.043V9.594C45.602,15.141,36.289,19.996,24.801,19.996"/>
	<path style="fill:#CE9912;" d="M6.398,21.075C6.871,21.504,7.406,21.918,8,22.309v-6.633c-0.594-0.406-1.129-0.836-1.602-1.281
		V21.075z M6.398,21.075"/>
	<path style="fill:#CE9912;" d="M41.602,15.676v6.633c0.589-0.391,1.125-0.805,1.597-1.234v-6.68
		C42.73,14.84,42.195,15.27,41.602,15.676"/>
	<path style="fill:#CE9912;" d="M9.602,23.243c0.503,0.261,1.039,0.507,1.597,0.742V17.43c-0.558-0.246-1.094-0.504-1.597-0.777
		V23.243z M9.602,23.243"/>
	<path style="fill:#CE9912;" d="M38.398,23.985c0.563-0.235,1.098-0.481,1.602-0.742v-6.59c-0.504,0.273-1.039,0.531-1.602,0.777
		V23.985z M38.398,23.985"/>
	<path style="fill:#CE9912;" d="M12.801,24.59c0.515,0.176,1.051,0.344,1.597,0.496v-6.492c-0.546-0.164-1.082-0.336-1.597-0.523
		V24.59z M12.801,24.59"/>
	<path style="fill:#CE9912;" d="M35.199,25.086c0.551-0.152,1.082-0.32,1.602-0.496v-6.519c-0.52,0.187-1.051,0.359-1.602,0.523
		V25.086z M35.199,25.086"/>
	<path style="fill:#CE9912;" d="M16.801,25.661c0.523,0.105,1.054,0.203,1.597,0.285v-6.434c-0.543-0.09-1.074-0.191-1.597-0.305
		V25.661z M16.801,25.661"/>
	<path style="fill:#CE9912;" d="M31.199,25.946c0.543-0.082,1.078-0.18,1.602-0.282v-6.457c-0.524,0.114-1.059,0.215-1.602,0.305
		V25.946z M31.199,25.946"/>
	<path style="fill:#CE9912;" d="M21.602,26.313c0.523,0.043,1.058,0.066,1.597,0.086v-6.403c-0.539-0.019-1.074-0.046-1.597-0.089
		V26.313z M21.602,26.313"/>
	<path style="fill:#CE9912;" d="M26.398,26.399c0.54-0.02,1.075-0.043,1.602-0.086v-6.406c-0.527,0.039-1.062,0.07-1.602,0.089
		V26.399z M26.398,26.399"/>
	<path style="fill:#FCC62D;" d="M45.602,9.602C45.602,15.145,36.289,20,24.801,20C13.312,20,4,15.145,4,9.602
		C4,4.055,13.312,0,24.801,0C36.289,0,45.602,4.055,45.602,9.602"/>
	<path style="fill:#FFD949;" d="M24.801,16.774c-10.946,0-17.602-4.25-17.602-7.172c0-2.926,6.656-7.203,17.602-7.203
		c10.945,0,17.597,4.277,17.597,7.203C42.398,12.524,35.746,16.774,24.801,16.774"/>
	<path style="fill:#F0C41B;" d="M30.227,10.688c0.652-0.141,1.039-0.543,0.898-1.008l-0.152-0.492
		c-0.114-0.359-0.543-0.664-1.075-0.813c-0.722-1.543-2.562-2.101-5.296-2.101c-0.129,0-0.254,0.004-0.379,0.008
		c-0.934,0.039-1.864-0.051-2.59-0.317c-0.297-0.109-0.535-0.222-0.695-0.34c-0.071-0.05-0.247-0.019-0.247,0.051
		c0,0.117,0.008,0.254,0.036,0.406c0.097,0.598-0.02,0.508-0.61,1.106c-0.344,0.348-0.617,0.746-0.812,1.187
		c-0.528,0.153-0.961,0.454-1.071,0.817l-0.152,0.492c-0.141,0.461,0.242,0.863,0.898,1.004c0.188,1.18,0.993,2.219,2.743,2.789
		l-0.098,0.828c-0.027,0.223-0.219,0.43-0.496,0.527l-3.527,1.274c2.058,0.433,4.41,0.695,7,0.695c2.558,0,4.878-0.254,6.918-0.676
		l-3.454-1.289c-0.273-0.101-0.461-0.304-0.484-0.523l-0.098-0.836C29.234,12.907,30.039,11.868,30.227,10.688"/>
</g>
</svg>
