<?xml version="1.0" encoding="iso-8859-1"?>
<!-- Generator: Adobe Illustrator 22.0.1, SVG Export Plug-In . SVG Version: 6.00 Build 0)  -->
<svg version="1.1" id="Layer_1" xmlns="http://www.w3.org/2000/svg" xmlns:xlink="http://www.w3.org/1999/xlink" x="0px" y="0px"
	 viewBox="0 0 30.654 53.947" style="enable-background:new 0 0 30.654 53.947;" xml:space="preserve">
<g>
	<defs>
		<rect id="SVGID_1_" y="0" width="30.654" height="53.947"/>
	</defs>
	<clipPath id="SVGID_2_">
		<use xlink:href="#SVGID_1_"  style="overflow:visible;"/>
	</clipPath>
	<path style="clip-path:url(#SVGID_2_);fill:#003C58;" d="M27.51,0H3.144C1.408,0,0,1.59,0,3.551v46.845
		c0,1.961,1.408,3.551,3.144,3.551H27.51c1.736,0,3.144-1.59,3.144-3.551V3.551C30.654,1.59,29.246,0,27.51,0"/>
	<path style="clip-path:url(#SVGID_2_);fill:#637889;" d="M3.451,51.704c-0.94,0-1.705-0.867-1.705-1.932V3.974
		c0-1.066,0.765-1.933,1.705-1.933h23.751c0.941,0,1.705,0.867,1.705,1.933v45.798c0,1.065-0.764,1.932-1.705,1.932H3.451z"/>
	<path style="clip-path:url(#SVGID_2_);fill:#A7B2BC;" d="M14.223,2.041h12.979c0.941,0,1.705,0.867,1.705,1.933v45.798
		c0,1.065-0.764,1.932-1.705,1.932"/>
	<path style="clip-path:url(#SVGID_2_);fill:#003C58;" d="M9.787,1.587l0.791,2.049c0.108,0.27,0.368,0.446,0.657,0.446h8.456
		c0.29,0,0.55-0.176,0.657-0.446l0.791-2.049H9.787z"/>
	<path style="clip-path:url(#SVGID_2_);fill:#FFFFFF;" d="M15.327,34.874c4.419,0,8.002-3.583,8.002-8.002s-3.583-8.002-8.002-8.002
		s-8.002,3.583-8.002,8.002S10.908,34.874,15.327,34.874"/>
	<path style="clip-path:url(#SVGID_2_);fill:#38B44A;" d="M20.915,23.836l-7.039,7.303c-0.088,0.089-0.176,0.134-0.31,0.134
		c-0.131,0-0.262-0.045-0.307-0.134l-3.43-3.694L9.74,27.356c-0.088-0.088-0.133-0.221-0.133-0.307c0-0.088,0.045-0.221,0.133-0.309
		l0.615-0.617c0.176-0.173,0.44-0.173,0.617,0l0.045,0.045l2.418,2.595c0.088,0.088,0.22,0.088,0.308,0l5.896-6.113h0.043
		c0.176-0.176,0.44-0.176,0.617,0l0.616,0.614C21.089,23.397,21.089,23.662,20.915,23.836 M15.328,17.194
		c-5.368,0-9.679,4.311-9.679,9.679c0,5.366,4.311,9.677,9.679,9.677c5.365,0,9.677-4.311,9.677-9.677
		C25.005,21.505,20.693,17.194,15.328,17.194"/>
</g>
</svg>
