<?xml version="1.0" encoding="iso-8859-1"?>
<!-- Generator: Adobe Illustrator 22.0.1, SVG Export Plug-In . SVG Version: 6.00 Build 0)  -->
<svg version="1.1" id="Layer_1" xmlns="http://www.w3.org/2000/svg" xmlns:xlink="http://www.w3.org/1999/xlink" x="0px" y="0px"
	 viewBox="0 0 32.938 53.947" style="enable-background:new 0 0 32.938 53.947;" xml:space="preserve">
<g>
	<defs>
		<rect id="SVGID_1_" y="0" width="32.938" height="53.947"/>
	</defs>
	<clipPath id="SVGID_2_">
		<use xlink:href="#SVGID_1_"  style="overflow:visible;"/>
	</clipPath>
	<path style="clip-path:url(#SVGID_2_);fill:#003C58;" d="M30.282,9.786H1.224l3.303-2.237C4.712,7.42,4.891,7.27,5.063,7.091
		c1.301-1.337,2.151-3.967,2.394-5.99C7.529,0.472,8.072,0,8.701,0h14.104c0.636,0,1.172,0.472,1.244,1.101
		c0.243,2.023,1.093,4.653,2.394,5.99c0.172,0.179,0.351,0.329,0.536,0.458L30.282,9.786z"/>
	<path style="clip-path:url(#SVGID_2_);fill:#316983;" d="M30.282,9.786v0.572H1.224V9.786l3.303-2.237
		C4.712,7.42,4.891,7.27,5.063,7.091h21.38c0.172,0.179,0.351,0.329,0.536,0.458L30.282,9.786z"/>
	<path style="clip-path:url(#SVGID_2_);fill:#003C58;" d="M30.282,44.161H1.224l3.303,2.237c0.185,0.129,0.364,0.279,0.536,0.458
		c1.301,1.337,2.151,3.967,2.394,5.99c0.072,0.629,0.615,1.101,1.244,1.101h14.104c0.636,0,1.172-0.472,1.244-1.101
		c0.243-2.023,1.093-4.653,2.394-5.99c0.172-0.179,0.351-0.329,0.536-0.458L30.282,44.161z"/>
	<path style="clip-path:url(#SVGID_2_);fill:#316983;" d="M30.282,44.161v-0.572H1.224v0.572l3.303,2.237
		c0.185,0.129,0.364,0.279,0.536,0.458h21.38c0.172-0.179,0.351-0.329,0.536-0.458L30.282,44.161z"/>
	<path style="clip-path:url(#SVGID_2_);fill:#003C58;" d="M29.35,44.618H2.157C0.966,44.618,0,43.652,0,42.46V11.487
		c0-1.192,0.966-2.158,2.157-2.158H29.35c1.192,0,2.158,0.966,2.158,2.158V42.46C31.508,43.652,30.542,44.618,29.35,44.618"/>
	<path style="clip-path:url(#SVGID_2_);fill:#3B546B;" d="M32.219,24.388h-0.71v-5.719h0.71c0.397,0,0.719,0.322,0.719,0.72v4.28
		C32.938,24.066,32.616,24.388,32.219,24.388"/>
	<path style="clip-path:url(#SVGID_2_);fill:#637889;" d="M29.618,13.363v27.221c0,1.186-0.958,2.144-2.145,2.144H4.034
		c-0.615,0-1.165-0.257-1.551-0.672c-0.372-0.378-0.593-0.9-0.593-1.472V13.363c0-1.187,0.958-2.144,2.144-2.144h23.439
		c0.615,0,1.166,0.257,1.552,0.671C29.389,12.269,29.618,12.791,29.618,13.363"/>
	<path style="clip-path:url(#SVGID_2_);fill:#FFFFFF;" d="M15.76,34.874c4.419,0,8.002-3.583,8.002-8.002s-3.583-8.002-8.002-8.002
		s-8.002,3.583-8.002,8.002S11.341,34.874,15.76,34.874"/>
	<path style="clip-path:url(#SVGID_2_);fill:#FF0038;" d="M17.169,27.049l3.299,3.3c0.088,0.086,0.131,0.219,0.131,0.307
		c0,0.088-0.043,0.219-0.131,0.307l-0.616,0.616c-0.088,0.088-0.219,0.131-0.308,0.131c-0.133,0-0.221-0.043-0.307-0.131
		l-3.299-3.299c-0.088-0.088-0.221-0.088-0.31,0l-3.299,3.299c-0.088,0.088-0.219,0.131-0.307,0.131
		c-0.133,0-0.221-0.043-0.309-0.131l-0.615-0.616c-0.088-0.088-0.133-0.219-0.133-0.307c0-0.088,0.045-0.221,0.133-0.307l3.3-3.3
		c0.088-0.088,0.088-0.221,0-0.309l-3.3-3.3c-0.088-0.088-0.133-0.219-0.133-0.307c0-0.087,0.045-0.221,0.133-0.309l0.615-0.614
		c0.088-0.088,0.221-0.133,0.309-0.133c0.088,0,0.219,0.045,0.307,0.133l3.299,3.299c0.089,0.088,0.222,0.088,0.31,0l3.299-3.299
		c0.086-0.088,0.219-0.133,0.307-0.133c0.132,0,0.22,0.045,0.308,0.133l0.616,0.614c0.088,0.088,0.131,0.222,0.131,0.309
		c0,0.088-0.043,0.219-0.131,0.307l-3.299,3.3C17.081,26.785,17.081,26.961,17.169,27.049 M15.762,17.194
		c-5.368,0-9.679,4.311-9.679,9.679c0,5.366,4.311,9.677,9.679,9.677c5.365,0,9.677-4.311,9.677-9.677
		C25.439,21.505,21.127,17.194,15.762,17.194"/>
</g>
</svg>
