<?xml version="1.0" encoding="iso-8859-1"?>
<!-- Generator: Adobe Illustrator 22.0.1, SVG Export Plug-In . SVG Version: 6.00 Build 0)  -->
<svg version="1.1" id="Layer_1" xmlns="http://www.w3.org/2000/svg" xmlns:xlink="http://www.w3.org/1999/xlink" x="0px" y="0px"
	 viewBox="0 0 49.684 59.68" style="enable-background:new 0 0 49.684 59.68;" xml:space="preserve">
<g>
	<defs>
		<rect id="SVGID_1_" y="0" width="49.684" height="59.68"/>
	</defs>
	<clipPath id="SVGID_2_">
		<use xlink:href="#SVGID_1_"  style="overflow:visible;"/>
	</clipPath>
	<path style="clip-path:url(#SVGID_2_);fill:#003C58;" d="M39.186,0H8.728c-2.17,0-3.929,1.759-3.929,3.929v51.822
		c0,2.17,1.759,3.929,3.929,3.929h30.458c2.17,0,3.93-1.759,3.93-3.929V3.929C43.116,1.759,41.356,0,39.186,0"/>
	<path style="clip-path:url(#SVGID_2_);fill:#FFFFFF;" d="M8.728,57.937c-1.206,0-2.186-0.981-2.186-2.186V3.929
		c0-1.206,0.98-2.187,2.186-2.187h30.458c1.206,0,2.186,0.981,2.186,2.187v51.822c0,1.205-0.98,2.186-2.186,2.186H8.728z"/>
	<path style="clip-path:url(#SVGID_2_);fill:#003C58;" d="M17.032,1.414l0.989,2.561c0.134,0.337,0.459,0.558,0.821,0.558h10.571
		c0.362,0,0.686-0.221,0.82-0.558l0.989-2.561H17.032z"/>
	<path style="clip-path:url(#SVGID_2_);fill:#FF0038;" d="M47.364,29.282c0.931,13.063-8.904,24.405-21.968,25.336
		c-13.061,0.93-24.405-8.905-25.335-21.967C-0.87,19.588,8.965,8.246,22.028,7.316C35.09,6.385,46.434,16.22,47.364,29.282"/>
	<path style="clip-path:url(#SVGID_2_);fill:#FFFFFF;" d="M41.404,31.006c0,9.757-7.91,17.666-17.665,17.666
		c-9.757,0-17.665-7.909-17.665-17.666c0-9.756,7.908-17.665,17.665-17.665C33.494,13.341,41.404,21.25,41.404,31.006"/>
	<path style="clip-path:url(#SVGID_2_);fill:#FF0038;" d="M35.178,29.155c1.027,6.329-3.272,12.29-9.6,13.316
		c-6.328,1.026-12.29-3.273-13.315-9.6c-1.026-6.329,3.272-12.29,9.6-13.316C28.19,18.529,34.153,22.827,35.178,29.155"/>
	<path style="clip-path:url(#SVGID_2_);fill:#FFFFFF;" d="M29.291,31.006c0,3.066-2.486,5.552-5.552,5.552s-5.553-2.486-5.553-5.552
		s2.487-5.551,5.553-5.551S29.291,27.94,29.291,31.006"/>
</g>
<polygon style="fill:#637889;" points="43.519,9.831 36.746,16.606 36.337,11.968 43.112,5.193 "/>
<polygon style="fill:#637889;" points="38.272,18.132 42.911,18.541 49.683,11.766 45.047,11.36 "/>
<g>
	<defs>
		<rect id="SVGID_3_" y="0" width="49.684" height="59.68"/>
	</defs>
	<clipPath id="SVGID_4_">
		<use xlink:href="#SVGID_3_"  style="overflow:visible;"/>
	</clipPath>
	<path style="clip-path:url(#SVGID_4_);fill:#3B546B;" d="M23.022,31.856c0.495,0.496,1.297,0.496,1.792,0l21.131-21.13
		c0.494-0.494,0.494-1.298,0-1.793c-0.497-0.494-1.299-0.494-1.794,0l-21.129,21.13C22.526,30.559,22.526,31.361,23.022,31.856"/>
</g>
</svg>
