<?xml version="1.0" encoding="iso-8859-1"?>
<!-- Generator: Adobe Illustrator 22.0.1, SVG Export Plug-In . SVG Version: 6.00 Build 0)  -->
<svg version="1.1" id="Layer_1" xmlns="http://www.w3.org/2000/svg" xmlns:xlink="http://www.w3.org/1999/xlink" x="0px" y="0px"
	 viewBox="0 0 64.154 72.332" style="enable-background:new 0 0 64.154 72.332;" xml:space="preserve">
<rect x="0.662" y="22.497" style="fill:#293B45;" width="53.945" height="26.132"/>
<rect x="48.497" y="49.22" style="fill:#1A292E;" width="0.941" height="3.781"/>
<rect x="38.892" y="49.22" style="fill:#1A292E;" width="0.941" height="3.781"/>
<rect x="16.083" y="49.22" style="fill:#1A292E;" width="0.942" height="3.781"/>
<rect x="6.478" y="49.22" style="fill:#1A292E;" width="0.941" height="3.781"/>
<rect x="24.394" y="48.295" style="fill:#293B45;" width="7.945" height="24.037"/>
<rect x="1.949" y="23.848" style="fill:#F1F1F1;" width="51.372" height="24.886"/>
<rect y="47.62" style="fill:#334D5C;" width="55.27" height="2.596"/>
<rect y="52.486" style="fill:#334D5C;" width="55.27" height="1.029"/>
<rect x="43.88" y="18.55" style="fill:#FF0038;" width="7.886" height="3.947"/>
<g>
	<defs>
		<rect id="SVGID_1_" y="0" width="64.154" height="72.332"/>
	</defs>
	<clipPath id="SVGID_2_">
		<use xlink:href="#SVGID_1_"  style="overflow:visible;"/>
	</clipPath>
	<path style="clip-path:url(#SVGID_2_);fill:#FF0038;" d="M54.256,17.019c-0.126,0-0.254-0.049-0.356-0.146
		c-1.671-1.671-3.889-2.59-6.253-2.59c-2.36,0-4.583,0.919-6.253,2.59c-0.196,0.195-0.513,0.195-0.708,0
		c-0.195-0.195-0.195-0.513,0-0.709c1.861-1.856,4.333-2.882,6.961-2.882c2.628,0,5.105,1.021,6.962,2.882
		c0.195,0.196,0.195,0.514,0,0.709C54.51,16.97,54.383,17.019,54.256,17.019"/>
	<path style="clip-path:url(#SVGID_2_);fill:#FF0038;" d="M58.955,12.319c-0.126,0-0.254-0.049-0.351-0.146
		c-6.043-6.043-15.872-6.043-21.911,0c-0.195,0.195-0.513,0.195-0.708,0c-0.195-0.195-0.195-0.513,0-0.708
		c6.43-6.429,16.893-6.429,23.326,0c0.197,0.195,0.197,0.513,0,0.708C59.214,12.27,59.083,12.319,58.955,12.319"/>
	<path style="clip-path:url(#SVGID_2_);fill:#FF0038;" d="M63.655,7.62c-0.128,0-0.254-0.049-0.351-0.146
		c-8.633-8.632-22.678-8.632-31.309,0c-0.196,0.195-0.514,0.195-0.709,0s-0.195-0.513,0-0.708c9.023-9.023,23.702-9.018,32.72,0
		c0.197,0.195,0.197,0.513,0,0.708C63.909,7.571,63.783,7.62,63.655,7.62"/>
</g>
</svg>
