<svg version="1.1" id="way" xmlns="http://www.w3.org/2000/svg" xmlns:xlink="http://www.w3.org/1999/xlink" x="0px" y="0px" viewBox="0 0 1054.126 342.898" style="enable-background:new 0 0 1054.126 342.898;" xml:space="preserve" data-llp-composed="true" class="lazy-line-painter">
                    <g>
                        <g>
                            <path d="M46.474,30.079c-4.73,0.157-9.457,0.362-14.184,0.599l0.144,2.831
			c4.711-0.237,9.422-0.441,14.137-0.598L46.474,30.079L46.474,30.079z"/>
                            <path d="M66.358,29.724c-4.735,0.007-9.47,0.069-14.204,0.19l0.072,2.834c4.713-0.117,9.424-0.181,14.139-0.189L66.358,29.724L66.358,29.724z"/><path d="M86.255,30.112c-4.737-0.194-9.471-0.315-14.212-0.362l-0.026,2.835c4.712,0.047,9.416,0.167,14.124,0.36L86.255,30.112L86.255,30.112z"/>
                            <path d="M106.131,31.506c-4.726-0.476-9.447-0.835-14.189-1.113l-0.162,2.83c4.7,0.274,9.384,0.631,14.068,1.103L106.131,31.506L106.131,31.506z"/>
                            <path d="M125.887,34.289c-4.684-0.864-9.365-1.563-14.092-2.15l-0.344,2.814c4.669,0.578,9.298,1.271,13.926,2.124L125.887,34.289L125.887,34.289z"/>
                            <path d="M145.318,39.024c-4.559-1.421-9.163-2.593-13.828-3.612l-0.599,2.771c4.583,1,9.109,2.153,13.589,3.549L145.318,39.024L145.318,39.024z"/>
                            <path d="M163.922,46.526c-4.284-2.194-8.644-4.049-13.17-5.683l-0.953,2.67c4.41,1.59,8.664,3.403,12.838,5.54L163.922,46.526L163.922,46.526z"/>
                            <path d="M180.626,57.775c-3.639-3.184-7.514-5.98-11.668-8.455l-1.443,2.439c4.01,2.392,7.738,5.08,11.252,8.156L180.626,57.775L180.626,57.775z"/>
                            <path d="M193.64,73.224c-2.494-4.123-5.498-7.967-8.83-11.445l-2.039,1.969c3.189,3.331,6.062,7.006,8.45,10.954L193.64,73.224L193.64,73.224z"/>
                            <path d="M202.104,91.457c-1.6-4.53-3.481-8.904-5.665-13.183l-2.522,1.293c2.128,4.171,3.958,8.426,5.517,12.841L202.104,91.457L202.104,91.457z"/>
                            <path d="M206.85,110.982c-0.663-4.777-1.663-9.409-2.99-14.045l-2.723,0.789c1.292,4.501,2.263,9.016,2.907,13.656L206.85,110.982L206.85,110.982z"/>
                            <path d="M207.547,131.071c0.313-4.673,0.346-9.709-0.078-14.373l-2.824,0.238c0.347,4.682,0.387,9.262,0.074,13.948L207.547,131.071L207.547,131.071z"/>
                            <path d="M204.236,150.882c1.241-4.644,2.151-9.319,2.76-14.087l-2.813-0.35c-0.589,4.638-1.479,9.192-2.686,13.708L204.236,150.882L204.236,150.882z"/>
                            <path d="M197.38,169.729c2.004-4.369,3.749-8.769,5.232-13.342l-2.7-0.865c-1.442,4.462-3.157,8.77-5.112,13.031L197.38,169.729L197.38,169.729z"/>
                            <path d="M187.634,187.235c2.613-3.997,5.029-8.115,7.224-12.356l-2.522-1.294c-2.141,4.15-4.524,8.196-7.078,12.104L187.634,187.235L187.634,187.235z"/>
                            <path d="M175.665,203.262c3.071-3.644,5.996-7.406,8.75-11.296l-2.317-1.633c-2.706,3.824-5.585,7.525-8.604,11.107L175.665,203.262L175.665,203.262z"/>
                            <path d="M162.015,217.849c3.411-3.302,6.739-6.738,9.903-10.278l-2.116-1.885c-3.126,3.489-6.396,6.872-9.762,10.131L162.015,217.849L162.015,217.849z"/>
                            <path d="M148.174,231.809l0.292-0.361l0.472-0.573l0.482-0.573l0.493-0.573l0.503-0.572l0.513-0.572l0.524-0.572l0.534-0.571l0.545-0.571l0.555-0.571l0.566-0.57l0.576-0.57l0.587-0.569l0.598-0.569l0.609-0.569l1.841-1.686l-1.921-2.085l-1.845,1.689l-0.628,0.586l-0.618,0.587l-0.607,0.589l-0.596,0.589l-0.585,0.59l-0.575,0.591l-0.565,0.591l-0.554,0.592l-0.543,0.593l-0.533,0.593l-0.523,0.595l-0.512,0.595l-0.502,0.596l-0.491,0.596l-0.292,0.361L148.174,231.809L148.174,231.809z"/>
                            <path d="M138.744,248.588l0.187-0.547l0.202-0.569l0.211-0.568l0.22-0.569l0.228-0.57l0.237-0.57l0.246-0.571l0.254-0.571l0.263-0.571l0.272-0.571l0.281-0.572l0.29-0.572l0.299-0.572l0.308-0.573l0.318-0.573l0.327-0.573l0.336-0.573l0.345-0.573l0.355-0.574l0.364-0.573l0.601-0.912l-2.348-1.589l-0.245,0.366l-0.392,0.601l-0.383,0.602l-0.373,0.601l-0.363,0.602l-0.353,0.603l-0.343,0.602l-0.334,0.603l-0.325,0.603l-0.315,0.604l-0.306,0.604l-0.297,0.603l-0.287,0.603l-0.278,0.604l-0.269,0.604l-0.26,0.604l-0.251,0.604l-0.241,0.603l-0.233,0.603l-0.224,0.604l-0.215,0.603l-0.187,0.547L138.744,248.588L138.744,248.588z"/>
                            <path d="M136.796,267.523l-0.064-0.558l-0.056-0.542l-0.049-0.543l-0.042-0.545l-0.035-0.546l-0.028-0.546l-0.021-0.547l-0.014-0.549l-0.008-0.549v-0.55l0.007-0.551l0.015-0.552l0.021-0.553l0.028-0.554l0.037-0.555l0.043-0.555l0.051-0.556l0.059-0.557l0.066-0.558l0.074-0.558l0.081-0.56l0.089-0.56l0.097-0.561l0.104-0.562l0.076-0.377l-2.776-0.574l-0.083,0.413l-0.112,0.598l-0.104,0.598l-0.094,0.597l-0.087,0.596l-0.078,0.596l-0.071,0.595l-0.063,0.594l-0.054,0.594l-0.046,0.593l-0.038,0.591l-0.031,0.592l-0.023,0.59l-0.015,0.588l-0.008,0.588v0.587l0.008,0.586l0.015,0.584l0.023,0.584l0.03,0.583l0.037,0.581l0.045,0.58l0.052,0.579l0.059,0.578l0.069,0.592L136.796,267.523L136.796,267.523z"/>
                            <path d="M142.902,285.701c-0.381-0.681-0.741-1.371-1.096-2.066c-0.248-0.497-0.489-0.994-0.727-1.496c-0.232-0.503-0.457-1.005-0.679-1.512l-0.425-1.016l-0.403-1.023l-0.193-0.513l-0.187-0.515l-0.181-0.517l-0.176-0.518l-0.169-0.52l-0.164-0.521l-0.158-0.523l-0.151-0.524l-0.146-0.525l-0.255-0.984l-2.752,0.677l0.124,0.489l0.148,0.559l0.154,0.557l0.16,0.555l0.167,0.553l0.173,0.552l0.179,0.55l0.186,0.548l0.191,0.546l0.198,0.545l0.204,0.542l0.209,0.54l0.215,0.538l0.221,0.537l0.227,0.535l0.232,0.532l0.481,1.058l0.25,0.526l0.255,0.524l0.526,1.042l0.546,1.033l0.335,0.61L142.902,285.701L142.902,285.701z"/>
                            <path d="M154.752,301.022c-3.323-3.244-6.306-6.787-8.937-10.613l-2.343,1.597c2.737,3.978,5.834,7.663,9.291,11.037L154.752,301.022L154.752,301.022z"/>
                            <path d="M170.19,312.876c-3.994-2.385-7.78-5.077-11.322-8.094l-1.85,2.147c3.657,3.118,7.583,5.911,11.709,8.375L170.19,312.876L170.19,312.876z"/>
                            <path d="M187.97,320.706c-4.439-1.289-8.78-3.056-12.902-5.144l-1.29,2.524c4.275,2.168,8.786,4.002,13.391,5.339L187.97,320.706L187.97,320.706z"/>
                            <path d="M207.06,322.97l-0.577,0.042l-0.959,0.051c-4.085,0.149-8.159-0.212-12.165-1.031l-0.573,2.776c3.233,0.654,6.454,1.02,9.75,1.115c0.521,0.009,1.039,0.012,1.56,0.011l1.033-0.021l1.025-0.044l0.511-0.03l0.611-0.044L207.06,322.97L207.06,322.97z"/>
                            <path d="M226.569,320.367c-4.632,0.872-9.24,1.48-13.919,2.025l0.313,2.817c4.733-0.531,9.445-1.174,14.126-2.055L226.569,320.367L226.569,320.367z"/>
                            <path d="M245.293,314.914c-4.286,1.823-8.723,3.195-13.248,4.285l0.657,2.758c4.675-1.125,9.263-2.547,13.691-4.43L245.293,314.914L245.293,314.914z"/>
                            <path d="M261.695,304.725c-3.512,3.081-7.271,5.619-11.391,7.813l1.32,2.508c4.308-2.291,8.261-4.962,11.932-8.183L261.695,304.725L261.695,304.725z"/>
                            <path d="M274.009,289.831c-2.438,4.003-5.126,7.634-8.336,11.053l2.06,1.947c2.502-2.67,4.672-5.423,6.731-8.447c0.681-1.02,1.332-2.04,1.97-3.087L274.009,289.831L274.009,289.831z"/>
                            <path d="M282.092,272.084c-1.504,4.437-3.261,8.702-5.378,12.881l2.524,1.29c2.178-4.298,3.99-8.69,5.536-13.252L282.092,272.084L282.092,272.084z"/>
                            <path d="M286.967,253.071c-0.868,4.569-1.891,9.199-3.204,13.662l2.72,0.799c1.363-4.446,2.399-9.353,3.267-13.925L286.967,253.071L286.967,253.071z"/>
                            <path d="M289.62,233.553c-0.424,4.681-0.987,9.333-1.703,13.979l2.801,0.439c0.726-4.703,1.296-9.415,1.725-14.155L289.62,233.553L289.62,233.553z"/>
                            <path d="M290.714,213.841c-0.107,4.683-0.3,9.417-0.644,14.089l2.827,0.206c0.341-4.723,0.542-9.491,0.65-14.225L290.714,213.841L290.714,213.841z"/>
                            <path d="M290.762,194.043c0.025,4.717,0.072,9.436,0.041,14.153l2.835,0.023c0.03-4.731-0.015-9.462-0.041-14.193L290.762,194.043L290.762,194.043z"/>
                            <path d="M290.691,174.191c-0.003,4.727,0.014,9.455,0.04,14.182l2.834-0.016c-0.025-4.721-0.043-9.443-0.039-14.164L290.691,174.191L290.691,174.191z"/>
                            <path d="M290.934,154.315c-0.126,4.734-0.193,9.464-0.223,14.2l2.835,0.016c0.03-4.716,0.096-9.428,0.221-14.143L290.934,154.315L290.934,154.315z"/>
                            <path d="M292.009,134.42c-0.414,4.728-0.694,9.468-0.883,14.211l2.833,0.11c0.191-4.7,0.465-9.392,0.875-14.078L292.009,134.42L292.009,134.42z"/>
                            <path d="M294.85,114.625c-0.982,4.665-1.736,9.382-2.266,14.12l2.817,0.313c0.484-4.147,1.098-8.218,1.905-12.315l0.32-1.543L294.85,114.625L294.85,114.625z"/>
                            <path d="M301.127,95.502l-0.245,0.519l-0.299,0.65l-0.294,0.655L300,97.987l-0.282,0.666l-0.276,0.671L299.171,100l-0.265,0.681l-0.26,0.686l-0.254,0.692l-0.249,0.697l-0.243,0.702l-0.238,0.707l-0.233,0.712l-0.228,0.718l-0.222,0.722l-0.218,0.728l-0.212,0.733l-0.349,1.257l2.738,0.735l0.337-1.214l0.206-0.711l0.21-0.705l0.216-0.7l0.22-0.694l0.225-0.689l0.229-0.683l0.235-0.677l0.239-0.672l0.245-0.667l0.25-0.661l0.255-0.656l0.26-0.65l0.266-0.645l0.271-0.639l0.276-0.634l0.282-0.628l0.287-0.623l0.245-0.518L301.127,95.502L301.127,95.502z"/>
                            <path d="M312.815,78.99l-0.446,0.439l-0.494,0.498l-0.486,0.504l-0.479,0.509l-0.471,0.514l-0.464,0.52l-0.457,0.525l-0.449,0.53l-0.443,0.535l-0.436,0.542l-0.428,0.546l-0.422,0.551l-0.415,0.557l-0.407,0.562l-0.401,0.567l-0.395,0.573l-0.388,0.577l-0.381,0.583l-0.375,0.588l-0.367,0.593l-0.347,0.575l2.435,1.451l0.33-0.546l0.351-0.565l0.356-0.56l0.362-0.554l0.369-0.549l0.374-0.544l0.381-0.538l0.387-0.534l0.393-0.528l0.4-0.523l0.407-0.518l0.413-0.513l0.42-0.508l0.427-0.503l0.433-0.497l0.44-0.493l0.447-0.488l0.453-0.483l0.461-0.477l0.468-0.473l0.446-0.439L312.815,78.99L312.815,78.99z"/>
                            <path d="M329.498,67.554l-0.858,0.417l-0.709,0.356l-0.701,0.361l-0.692,0.366l-0.684,0.372l-0.675,0.376l-0.667,0.382l-0.658,0.387l-0.65,0.393l-0.642,0.398l-0.633,0.403l-0.625,0.408l-0.618,0.414l-0.609,0.419l-0.601,0.424l-0.594,0.429l-0.585,0.435l-0.577,0.44l-0.523,0.409l1.76,2.222l0.495-0.387l0.55-0.419l0.557-0.414l0.566-0.409l0.573-0.405l0.581-0.399l0.589-0.395l0.597-0.39l0.606-0.385l0.614-0.381l0.622-0.376l0.631-0.371l0.639-0.366l0.648-0.361l0.656-0.357l0.665-0.352l0.673-0.347l0.682-0.342l0.831-0.404L329.498,67.554L329.498,67.554z"/>
                            <path d="M348.481,60.944l-1.046,0.262l-0.921,0.239l-0.91,0.243l-0.901,0.248l-0.892,0.253l-0.882,0.259l-0.872,0.264l-0.863,0.268l-0.853,0.273l-0.844,0.279l-0.835,0.284l-0.825,0.289l-0.816,0.294l-0.806,0.299l-0.798,0.304l-0.632,0.248l1.048,2.634l0.606-0.238l0.773-0.295l0.782-0.29l0.792-0.285l0.801-0.28l0.811-0.276l0.82-0.271l0.83-0.266l0.84-0.262l0.85-0.257l0.859-0.252l0.87-0.247l0.879-0.242l0.889-0.238l0.899-0.233l1.025-0.256L348.481,60.944L348.481,60.944z"/>
                            <path d="M368.175,57.45l-1.329,0.164l-1.115,0.145l-1.106,0.15l-1.094,0.155l-1.083,0.16l-1.073,0.164l-1.063,0.169l-1.052,0.174l-1.042,0.179l-1.031,0.184l-1.021,0.189l-1.01,0.194l-1.093,0.218l0.581,2.775l1.055-0.21l0.992-0.19l1.003-0.186l1.014-0.181l1.024-0.176l1.035-0.172l1.046-0.167l1.056-0.162l1.068-0.157l1.078-0.153l1.089-0.148l1.101-0.143l1.314-0.163L368.175,57.45L368.175,57.45z"/>
                            <path d="M388.055,55.855c-1.9,0.085-3.797,0.192-5.695,0.309l-2.511,0.171c-1.228,0.092-2.454,0.189-3.681,0.292l-1.204,0.107l-1.116,0.105l0.271,2.822l1.103-0.104l2.393-0.206c2.916-0.231,5.823-0.42,8.743-0.576l1.83-0.087L388.055,55.855L388.055,55.855z"/>
                            <path d="M407.961,55.475c-4.739-0.017-9.482,0.025-14.22,0.168l0.09,2.833c4.706-0.14,9.416-0.184,14.124-0.167L407.961,55.475L407.961,55.475z"/>
                            <path d="M427.849,55.92c-4.733-0.183-9.465-0.314-14.201-0.389l-0.04,2.834c4.713,0.075,9.424,0.205,14.134,0.387L427.849,55.92L427.849,55.92z"/>
                            <path d="M447.666,56.607c-4.719-0.132-9.435-0.289-14.153-0.465l-0.108,2.832c4.726,0.178,9.451,0.334,14.179,0.467L447.666,56.607L447.666,56.607z"/>
                            <path d="M467.478,56.99c-4.717-0.044-9.435-0.128-14.151-0.238l-0.07,2.833c4.725,0.122,9.464,0.195,14.191,0.239L467.478,56.99L467.478,56.99z"/>
                            <path d="M487.286,56.964c-4.718,0.05-9.428,0.086-14.146,0.065l-0.015,2.835c4.736,0.021,9.464-0.015,14.199-0.065L487.286,56.964L487.286,56.964z"/>
                            <path d="M507.075,56.383c-4.712,0.219-9.414,0.363-14.129,0.48l0.057,2.834c4.733-0.099,9.471-0.262,14.2-0.482L507.075,56.383L507.075,56.383z"/>
                            <path d="M526.804,55.035c-4.69,0.437-9.384,0.773-14.085,1.053l0.165,2.83c4.733-0.283,9.459-0.621,14.18-1.06L526.804,55.035L526.804,55.035z"/>
                            <path d="M546.408,52.629c-4.647,0.726-9.309,1.33-13.985,1.841l0.303,2.818c4.719-0.513,9.427-1.126,14.116-1.858L546.408,52.629L546.408,52.629z"/>
                            <path d="M565.771,48.849c-4.576,1.079-9.172,2.027-13.801,2.851l0.492,2.792c4.68-0.833,9.329-1.792,13.956-2.883L565.771,48.849L565.771,48.849z"/>
                            <path d="M584.79,43.582c-4.489,1.413-8.996,2.718-13.549,3.909l0.713,2.743c4.598-1.203,9.151-2.52,13.684-3.948L584.79,43.582L584.79,43.582z"/>
                            <path d="M603.51,37.191c-4.434,1.598-8.877,3.162-13.349,4.652l0.892,2.691c4.495-1.495,8.961-3.069,13.418-4.676L603.51,37.191L603.51,37.191z"/>
                            <path d="M622.143,30.383c-4.441,1.612-8.874,3.249-13.311,4.874l0.973,2.662c4.437-1.621,8.868-3.261,13.308-4.873L622.143,30.383L622.143,30.383z"/>
                            <path d="M640.871,23.745c-4.477,1.529-8.94,3.106-13.391,4.706l0.959,2.667c4.44-1.594,8.887-3.167,13.352-4.692L640.871,23.745L640.871,23.745z"/>
                            <path d="M659.761,17.556c-4.518,1.413-9.022,2.869-13.511,4.37l0.9,2.688c4.473-1.493,8.958-2.945,13.459-4.353L659.761,17.556L659.761,17.556z"/>
                            <path d="M678.813,11.88c-4.553,1.295-9.094,2.625-13.623,4.001l0.826,2.711c4.514-1.371,9.037-2.696,13.574-3.987L678.813,11.88L678.813,11.88z"/>
                            <path d="M698.002,6.695c-4.584,1.18-9.156,2.401-13.72,3.656l0.759,2.732c4.538-1.266,9.107-2.469,13.67-3.643L698.002,6.695L698.002,6.695z"/>
                            <path d="M717.298,1.945c-4.606,1.083-9.202,2.202-13.792,3.35l0.69,2.749c4.578-1.145,9.16-2.26,13.754-3.34L717.298,1.945L717.298,1.945z"/>
                            <path d="M737.414,0.188l-1.026-0.076l-0.751-0.042l-0.755-0.032l-0.76-0.023l-0.764-0.012L732.59,0l-0.772,0.008l-0.777,0.018l-0.781,0.029l-0.785,0.039l-0.79,0.049l-0.794,0.06l-0.798,0.07l-0.801,0.081l-0.806,0.092l-0.81,0.103l-0.814,0.113l-0.923,0.142l0.479,2.794l0.854-0.131l0.779-0.109l0.774-0.098l0.77-0.088l0.766-0.077l0.762-0.068l0.757-0.057l0.753-0.047l0.749-0.037l0.744-0.027l0.739-0.017l0.735-0.007l0.731,0.002l0.726,0.012l0.721,0.022l0.717,0.031l0.713,0.04l0.989,0.073L737.414,0.188L737.414,0.188z"/>
                            <path d="M756.911,5.73l-0.85-0.432l-0.607-0.296l-0.612-0.288l-0.617-0.28l-0.623-0.272l-0.628-0.265l-0.634-0.256l-0.639-0.249l-0.644-0.24l-0.649-0.232l-0.655-0.224l-0.659-0.216l-0.665-0.207l-0.669-0.199l-0.675-0.19l-0.679-0.182l-0.685-0.172l-0.689-0.164L744.34,1.21l-0.7-0.146l-0.459-0.089l-0.523,2.786l0.421,0.082l0.661,0.138l0.656,0.146l0.652,0.155l0.646,0.163l0.642,0.172l0.637,0.179l0.632,0.188l0.627,0.196l0.623,0.204l0.617,0.211l0.613,0.219l0.607,0.227l0.602,0.234l0.597,0.242l0.592,0.25l0.587,0.257l0.582,0.264l0.577,0.271l0.571,0.278l0.816,0.416L756.911,5.73L756.911,5.73z"/>
                            <path d="M772.621,18.549l-0.623-0.749l-0.423-0.492l-0.429-0.487l-0.436-0.482l-0.442-0.476l-0.448-0.471l-0.454-0.465l-0.461-0.46l-0.467-0.454l-0.473-0.448l-0.479-0.443l-0.485-0.437l-0.491-0.431l-0.498-0.425l-0.503-0.419l-0.509-0.413l-0.516-0.407l-0.521-0.4l-0.527-0.394l-0.533-0.387l-0.539-0.381l-0.442-0.304l-1.59,2.347l0.412,0.283l0.508,0.359l0.503,0.365l0.497,0.372l0.492,0.377l0.486,0.384l0.48,0.389l0.475,0.396l0.469,0.401l0.464,0.407l0.458,0.413l0.452,0.418l0.447,0.423l0.441,0.429l0.435,0.434l0.429,0.44l0.424,0.445l0.417,0.45l0.412,0.455l0.406,0.46l0.4,0.465l0.6,0.722L772.621,18.549L772.621,18.549z"/>
                            <path d="M782.222,36.399l-0.2-0.624l-0.206-0.615l-0.213-0.612l-0.22-0.609l-0.227-0.606l-0.234-0.604l-0.241-0.601l-0.249-0.598l-0.255-0.594l-0.263-0.591l-0.27-0.588l-0.276-0.584l-0.283-0.581l-0.291-0.578l-0.297-0.574l-0.304-0.571l-0.311-0.567l-0.318-0.563l-0.324-0.559l-0.331-0.555l-0.338-0.551l-0.519-0.817l-2.37,1.555l0.482,0.758l0.32,0.522l0.314,0.526l0.307,0.529l0.301,0.534l0.295,0.537l0.288,0.54l0.282,0.545l0.275,0.547l0.268,0.551l0.262,0.554l0.256,0.557l0.249,0.561l0.242,0.564l0.236,0.566l0.229,0.569l0.222,0.571l0.215,0.575l0.209,0.578l0.202,0.58l0.195,0.583l0.19,0.592L782.222,36.399L782.222,36.399z"/>
                            <path d="M784.617,56.508l0.051-0.806l0.032-0.657l0.024-0.657l0.015-0.657l0.008-0.656l0-0.656l-0.009-0.656l-0.016-0.655l-0.025-0.654l-0.032-0.653l-0.04-0.653l-0.048-0.652l-0.055-0.65l-0.063-0.65l-0.071-0.649l-0.079-0.647l-0.087-0.646l-0.094-0.645l-0.102-0.643l-0.109-0.642l-0.117-0.64l-0.131-0.668l-2.772,0.593l0-0.003l0.118,0.605l0.111,0.607l0.104,0.608l0.096,0.61l0.089,0.611l0.082,0.613l0.075,0.614l0.068,0.614l0.06,0.616l0.053,0.617l0.045,0.617l0.038,0.618l0.03,0.62l0.023,0.62l0.016,0.62l0.008,0.621l0,0.622l-0.007,0.622l-0.015,0.622l-0.022,0.623l-0.03,0.623l-0.049,0.771L784.617,56.508L784.617,56.508z"/>
                            <path d="M779.363,76.073l0.156-0.317l0.296-0.625l0.288-0.627l0.279-0.629l0.27-0.631l0.26-0.633l0.252-0.635l0.243-0.637l0.234-0.639l0.226-0.641l0.216-0.641l0.209-0.644l0.199-0.645l0.191-0.646l0.182-0.648l0.173-0.649l0.165-0.65l0.157-0.651l0.147-0.652l0.14-0.652l0.131-0.654l0.119-0.637l-2.789-0.504l-0.112,0.601l-0.125,0.618l-0.132,0.619l-0.14,0.617l-0.148,0.616l-0.156,0.615l-0.164,0.614l-0.172,0.613l-0.18,0.611l-0.188,0.61l-0.197,0.609l-0.205,0.608l-0.213,0.606l-0.221,0.604l-0.23,0.603l-0.238,0.601l-0.247,0.599l-0.255,0.597l-0.263,0.595l-0.272,0.593l-0.28,0.591l-0.156,0.317L779.363,76.073L779.363,76.073z"/>
                            <path d="M767.196,92.259l0.29-0.268l0.556-0.528l0.548-0.532l0.538-0.537l0.528-0.541l0.519-0.545l0.51-0.55l0.5-0.554l0.49-0.558l0.48-0.562l0.471-0.566l0.462-0.57l0.452-0.573l0.443-0.577l0.434-0.581l0.424-0.584l0.415-0.587l0.405-0.591l0.397-0.594l0.461-0.714l-2.408-1.494l-0.42,0.65l-0.376,0.563l-0.385,0.56l-0.394,0.557l-0.402,0.554l-0.411,0.551l-0.42,0.547l-0.429,0.544l-0.438,0.541l-0.448,0.537l-0.457,0.534l-0.466,0.53l-0.474,0.526l-0.484,0.523l-0.493,0.519l-0.503,0.515l-0.511,0.511l-0.521,0.507l-0.53,0.503l-0.29,0.268L767.196,92.259L767.196,92.259z"/>
                            <path d="M750.408,103.467l0.772-0.373l0.794-0.395l0.784-0.402l0.774-0.408l0.763-0.414l0.754-0.421l0.744-0.427l0.733-0.433l0.724-0.438l0.713-0.444l0.704-0.45l0.694-0.456l0.684-0.461l0.674-0.468l0.664-0.473l0.654-0.478l0.72-0.542l-1.744-2.235l-0.663,0.498l-0.625,0.457l-0.636,0.453l-0.645,0.447l-0.656,0.442l-0.664,0.437l-0.675,0.432l-0.685,0.426l-0.694,0.421l-0.704,0.415l-0.714,0.41l-0.724,0.404l-0.734,0.398l-0.745,0.393l-0.754,0.387l-0.765,0.381l-0.772,0.373L750.408,103.467L750.408,103.467z"/>
                            <path d="M731.366,109.963l0.757-0.174l1.012-0.244l1.001-0.252l0.991-0.26l0.98-0.268l0.969-0.275l0.959-0.283l0.949-0.291l0.938-0.298l0.928-0.305L741.77,107l0.907-0.32l0.896-0.327l0.886-0.334l0.646-0.252l-1.044-2.635l-0.616,0.24l-0.857,0.324l-0.867,0.317l-0.879,0.31l-0.889,0.303l-0.9,0.296l-0.91,0.289l-0.921,0.282l-0.931,0.275l-0.942,0.267l-0.953,0.26l-0.963,0.253l-0.975,0.245l-0.985,0.237l-0.757,0.174L731.366,109.963L731.366,109.963z"/>
                            <path d="M712.278,114.679l0.867-0.305l0.771-0.262l0.774-0.255l0.777-0.248l0.781-0.24l0.783-0.233l0.786-0.225l0.789-0.218l0.792-0.21l0.794-0.203l0.797-0.195l0.799-0.188l0.802-0.179l0.805-0.171l0.807-0.164l0.81-0.155l0.717-0.13l-0.492-2.792l-0.745,0.135l-0.838,0.161l-0.836,0.169l-0.833,0.177l-0.83,0.185l-0.827,0.194l-0.824,0.202l-0.821,0.209l-0.819,0.218l-0.815,0.225l-0.812,0.233l-0.81,0.241l-0.807,0.248l-0.803,0.256l-0.8,0.264l-0.796,0.271l-0.893,0.314L712.278,114.679L712.278,114.679z"/>
                            <path d="M694.753,123.225l0.866-0.538l0.689-0.418l0.693-0.412l0.698-0.407l0.7-0.401l0.705-0.395l0.708-0.389l0.712-0.383l0.715-0.376l0.719-0.37l0.722-0.364l0.726-0.357l0.729-0.351l0.733-0.344l0.736-0.338l0.74-0.331l0.743-0.325l-0.008,0.003l-1.1-2.612l-0.783,0.342l-0.763,0.342l-0.76,0.349l-0.756,0.356l-0.752,0.362l-0.749,0.369l-0.745,0.375l-0.741,0.382l-0.738,0.388l-0.734,0.394l-0.73,0.401l-0.726,0.406l-0.722,0.413l-0.718,0.419l-0.714,0.424l-0.71,0.431l-0.887,0.551L694.753,123.225L694.753,123.225z"/>
                            <path d="M679.33,135.212l0.973-0.911l0.587-0.539l0.593-0.534l0.597-0.53l0.602-0.526l0.606-0.521l0.611-0.516l0.614-0.512l0.62-0.507l0.624-0.502l0.628-0.498l0.632-0.492l0.637-0.488l0.641-0.483l0.646-0.478l0.649-0.473l0.52-0.371l-1.64-2.313l-0.538,0.385l-0.668,0.487l-0.664,0.491l-0.66,0.497l-0.656,0.502l-0.65,0.507l-0.646,0.512l-0.642,0.516l-0.637,0.522l-0.632,0.526l-0.628,0.531l-0.623,0.536l-0.619,0.54l-0.614,0.545l-0.609,0.549l-0.604,0.554l-0.989,0.927L679.33,135.212L679.33,135.212z"/>
                            <path d="M666.517,149.959l0.702-0.975l0.927-1.249l0.471-0.62l0.477-0.617l0.483-0.615l0.488-0.612l0.493-0.609l0.499-0.605l0.503-0.602l0.509-0.599l0.514-0.596l0.52-0.592l0.524-0.589l0.529-0.585l0.535-0.582l0.693-0.74l-2.05-1.958l-0.723,0.773l-0.549,0.598l-0.544,0.602l-0.539,0.605l-0.533,0.609l-0.528,0.612l-0.523,0.616l-0.517,0.619l-0.512,0.622l-0.507,0.626l-0.501,0.629l-0.496,0.632l-0.491,0.635l-0.484,0.638l-0.479,0.641l-0.474,0.644l-0.715,0.994L666.517,149.959L666.517,149.959z"/>
                            <path d="M656.89,166.927l0.403-0.916l0.305-0.675l0.312-0.673l0.318-0.673l0.324-0.671l0.331-0.67l0.337-0.669l0.343-0.667l0.349-0.666l0.355-0.664l0.362-0.663l0.367-0.661l0.753-1.317l0.386-0.655l0.392-0.654l0.398-0.652l0.482-0.774l-2.39-1.524l-0.507,0.813l-0.409,0.671l-0.404,0.673l-0.397,0.675l-0.391,0.677l-0.385,0.679l-0.379,0.682l-0.372,0.683l-0.367,0.685l-0.36,0.687l-0.354,0.688l-0.347,0.689l-0.341,0.691l-0.334,0.693l-0.328,0.694l-0.322,0.695l-0.315,0.697l-0.412,0.939L656.89,166.927L656.89,166.927z"/>
                            <path d="M651.395,185.567l0.076-0.486l0.114-0.679l0.12-0.679l0.128-0.68l0.135-0.681l0.142-0.681l0.15-0.682l0.156-0.682l0.164-0.682l0.171-0.683l0.178-0.683l0.185-0.684l0.192-0.683l0.199-0.683l0.205-0.683l0.212-0.683l0.219-0.683l0.226-0.683l0.233-0.682l0.24-0.685l-2.662-0.975l-0.258,0.732l-0.241,0.707l-0.235,0.707l-0.227,0.708l-0.22,0.708l-0.213,0.708l-0.206,0.709l-0.199,0.709l-0.192,0.709l-0.184,0.709l-0.178,0.709l-0.17,0.709l-0.162,0.709l-0.155,0.709l-0.148,0.709l-0.14,0.708l-0.133,0.709l-0.125,0.708l-0.118,0.708l-0.076,0.486L651.395,185.567L651.395,185.567z"/>
                            <path d="M651.61,204.809l-0.121-0.635l-0.11-0.631l-0.103-0.634l-0.095-0.636l-0.086-0.638l-0.078-0.641l-0.071-0.643l-0.062-0.645l-0.055-0.647l-0.047-0.649l-0.039-0.651l-0.031-0.653l-0.023-0.655l-0.015-0.657l-0.007-0.659l0-0.661l0.008-0.662l0.016-0.664l0.023-0.665l0.031-0.667l0.043-0.736l-2.827-0.212l-0.048,0.799l-0.032,0.698l-0.025,0.698l-0.017,0.696l-0.008,0.695l0,0.693l0.008,0.693l0.016,0.691l0.024,0.69l0.032,0.688l0.041,0.686l0.049,0.684l0.058,0.683l0.066,0.68l0.075,0.679l0.083,0.676l0.091,0.675l0.1,0.673l0.109,0.67l0.117,0.668l0.127,0.672L651.61,204.809L651.61,204.809z"/>
                            <path d="M659.2,222.301l-0.45-0.624l-0.37-0.532l-0.36-0.535l-0.352-0.54l-0.342-0.543l-0.333-0.547l-0.325-0.551l-0.315-0.555l-0.307-0.558l-0.297-0.563l-0.289-0.566l-0.28-0.57l-0.271-0.573l-0.263-0.577l-0.253-0.58l-0.245-0.584l-0.236-0.587l-0.228-0.591l-0.219-0.593l-0.21-0.597l-0.264-0.792l-2.705,0.848l0.289,0.868l0.225,0.635l0.233,0.632l0.242,0.629l0.252,0.625l0.261,0.622l0.271,0.619l0.279,0.615l0.29,0.611l0.298,0.608l0.308,0.604l0.317,0.6l0.327,0.597l0.337,0.592l0.346,0.588l0.355,0.584l0.366,0.58l0.375,0.575l0.384,0.571l0.394,0.567l0.475,0.659L659.2,222.301L659.2,222.301z"/>
                            <path d="M673.529,235l-0.549-0.327l-0.643-0.394l-0.633-0.4l-0.622-0.406l-0.612-0.412l-0.602-0.416l-0.591-0.422l-0.581-0.427l-0.572-0.433l-0.561-0.438l-0.551-0.443l-0.542-0.448l-0.531-0.453l-0.521-0.459l-0.511-0.463l-0.502-0.469l-0.492-0.473l-0.482-0.478l-0.473-0.483l-0.23-0.241l-2.069,1.937l0.259,0.273l0.503,0.513l0.513,0.508l0.522,0.503l0.533,0.497l0.542,0.492l0.553,0.486l0.563,0.481l0.573,0.475l0.583,0.469l0.593,0.463l0.604,0.458l0.614,0.452l0.625,0.446l0.635,0.44l0.645,0.433l0.655,0.427l0.666,0.421l0.676,0.415l0.549,0.327L673.529,235L673.529,235z"/>
                            <path d="M691.513,242.229l-0.789-0.207l-0.893-0.245l-0.881-0.252l-0.87-0.26l-0.859-0.267l-0.847-0.274l-0.837-0.281l-0.825-0.287l-0.814-0.294l-0.804-0.301l-0.792-0.308l-0.782-0.314l-0.77-0.321l-0.76-0.327l-0.749-0.334l-0.812-0.375l-1.236,2.551l0.878,0.406l0.781,0.348l0.792,0.341l0.803,0.334l0.814,0.327l0.824,0.32l0.835,0.313l0.845,0.306l0.857,0.298l0.867,0.291l0.878,0.284l0.889,0.276l0.9,0.269l0.911,0.261l0.923,0.254l0.788,0.207L691.513,242.229L691.513,242.229z"/>
                            <path d="M710.799,246.455c-4.617-0.908-9.234-1.88-13.821-2.931l-0.635,2.763c4.616,1.057,9.262,2.036,13.908,2.95L710.799,246.455L710.799,246.455z"/>
                            <path d="M730.286,249.889c-4.655-0.724-9.299-1.517-13.932-2.373l-0.519,2.786c4.657,0.863,9.33,1.658,14.01,2.386L730.286,249.889L730.286,249.889z"/>
                            <path d="M749.89,252.559c-4.68-0.542-9.352-1.162-14.015-1.83l-0.406,2.805c4.689,0.673,9.385,1.295,14.091,1.84L749.89,252.559L749.89,252.559z"/>
                            <path d="M769.586,254.494c-4.697-0.375-9.389-0.812-14.076-1.309l-0.302,2.818c4.709,0.503,9.428,0.939,14.149,1.316L769.586,254.494L769.586,254.494z"/>
                            <path d="M789.341,255.732c-4.707-0.215-9.414-0.483-14.115-0.814l-0.203,2.827c4.722,0.337,9.455,0.601,14.184,0.818L789.341,255.732L789.341,255.732z"/>
                            <path d="M809.129,256.313c-4.716-0.066-9.425-0.183-14.138-0.35l-0.103,2.833c4.733,0.167,9.462,0.286,14.198,0.351L809.129,256.313L809.129,256.313z"/>
                            <path d="M828.928,256.284c-4.716,0.075-9.429,0.1-14.145,0.081l-0.013,2.835c4.735,0.019,9.466-0.007,14.201-0.082L828.928,256.284L828.928,256.284z"/>
                            <path d="M848.721,255.691c-4.71,0.204-9.423,0.368-14.135,0.479l0.064,2.834c4.733-0.117,9.463-0.276,14.194-0.481L848.721,255.691L848.721,255.691z"/>
                            <path d="M868.497,254.581c-4.706,0.322-9.412,0.601-14.123,0.844l0.143,2.831c4.727-0.245,9.45-0.524,14.172-0.846L868.497,254.581L868.497,254.581z"/>
                            <path d="M888.244,253c-4.697,0.429-9.397,0.82-14.101,1.175l0.211,2.827c4.719-0.355,9.435-0.748,14.147-1.178L888.244,253L888.244,253z"/>
                            <path d="M907.954,250.994c-4.689,0.521-9.379,1.016-14.075,1.475l0.273,2.822c4.71-0.461,9.414-0.956,14.117-1.479L907.954,250.994L907.954,250.994z"/>
                            <path d="M927.626,248.604c-4.67,0.61-9.366,1.225-14.045,1.745l0.327,2.816c4.699-0.557,9.393-1.137,14.084-1.75L927.626,248.604L927.626,248.604z"/>
                            <path d="M947.256,245.869c-4.669,0.688-9.341,1.351-14.017,1.987l0.38,2.809c4.687-0.638,9.369-1.302,14.049-1.992L947.256,245.869L947.256,245.869z"/>
                            <path d="M966.842,242.825c-4.659,0.757-9.32,1.492-13.986,2.204l0.425,2.802c4.676-0.711,9.346-1.449,14.014-2.208L966.842,242.825L966.842,242.825z"/>
                            <path d="M986.385,239.508c-4.649,0.819-9.3,1.618-13.956,2.396l0.466,2.796c4.664-0.78,9.324-1.581,13.981-2.401L986.385,239.508L986.385,239.508z"/>
                            <path d="M1005.89,235.946c-4.64,0.873-9.281,1.726-13.927,2.568l0.5,2.79c4.653-0.844,9.302-1.698,13.95-2.572L1005.89,235.946L1005.89,235.946z"/>
                            <path d="M1025.353,232.168c-4.63,0.922-9.263,1.829-13.9,2.719l0.534,2.784c4.643-0.892,9.282-1.8,13.919-2.723L1025.353,232.168L1025.353,232.168z"/>
                            <path d="M1044.782,228.2c-4.622,0.964-9.246,1.916-13.874,2.853l0.561,2.778c4.634-0.938,9.263-1.891,13.891-2.856L1044.782,228.2L1044.782,228.2z"/>
                            <path d="M1053.536,226.354l-3.21,0.681l0.586,2.774l3.214-0.682L1053.536,226.354L1053.536,226.354z"/>
                        </g>
                    </g>
</svg>