<?xml version="1.0" encoding="iso-8859-1"?>
<!-- Generator: Adobe Illustrator 22.0.1, SVG Export Plug-In . SVG Version: 6.00 Build 0)  -->
<svg version="1.1" id="Layer_1" xmlns="http://www.w3.org/2000/svg" xmlns:xlink="http://www.w3.org/1999/xlink" x="0px" y="0px"
	 viewBox="0 0 33.835 33.835" style="enable-background:new 0 0 33.835 33.835;" xml:space="preserve">
<g>
	<defs>
		<rect id="SVGID_1_" y="0" width="33.835" height="33.835"/>
	</defs>
	<clipPath id="SVGID_2_">
		<use xlink:href="#SVGID_1_"  style="overflow:visible;"/>
	</clipPath>
	<path style="clip-path:url(#SVGID_2_);fill:#3B546B;" d="M16.917,0c9.343,0,16.918,7.574,16.918,16.918
		c0,9.343-7.575,16.917-16.918,16.917S0,26.261,0,16.918C0,7.574,7.574,0,16.917,0"/>
	<path style="clip-path:url(#SVGID_2_);fill:#FFFFFF;" d="M16.917,2.987c7.694,0,13.931,6.237,13.931,13.931
		c0,7.693-6.237,13.93-13.931,13.93S2.986,24.611,2.986,16.918C2.986,9.224,9.223,2.987,16.917,2.987"/>
	<path style="clip-path:url(#SVGID_2_);fill:#EBF0F2;" d="M4.466,17.657c0-7.285,5.906-13.191,13.191-13.191
		c7.202,0,13.046,5.774,13.179,12.944c0.006-0.164,0.012-0.327,0.012-0.493c0-7.693-6.237-13.93-13.93-13.93
		c-7.694,0-13.931,6.237-13.931,13.93c0,7.694,6.237,13.931,13.931,13.931c0.165,0,0.329-0.007,0.492-0.012
		C10.24,30.703,4.466,24.859,4.466,17.657"/>
</g>
<polygon style="fill:#3B546B;" points="17.588,3.942 17.978,3.942 17.978,6.25 17.555,6.25 16.247,4.566 16.247,6.25 15.857,6.25 
	15.857,3.942 16.247,3.942 17.588,5.667 "/>
<g>
	<defs>
		<rect id="SVGID_3_" y="0" width="33.835" height="33.835"/>
	</defs>
	<clipPath id="SVGID_4_">
		<use xlink:href="#SVGID_3_"  style="overflow:visible;"/>
	</clipPath>
	<path style="clip-path:url(#SVGID_4_);fill:#3B546B;" d="M16.911,27.862c-0.113,0-0.206,0.023-0.279,0.069
		c-0.073,0.047-0.109,0.116-0.109,0.21s0.036,0.165,0.109,0.215c0.073,0.049,0.227,0.103,0.464,0.16
		c0.236,0.057,0.415,0.137,0.535,0.241c0.12,0.103,0.18,0.256,0.18,0.457c0,0.202-0.076,0.365-0.228,0.491
		c-0.152,0.125-0.351,0.188-0.598,0.188c-0.361,0-0.681-0.124-0.961-0.373l0.245-0.294c0.233,0.203,0.475,0.304,0.726,0.304
		c0.126,0,0.225-0.027,0.299-0.081c0.074-0.054,0.111-0.125,0.111-0.215c0-0.089-0.035-0.158-0.104-0.208
		c-0.07-0.049-0.189-0.094-0.359-0.135c-0.169-0.041-0.298-0.078-0.386-0.112c-0.088-0.035-0.166-0.079-0.235-0.134
		c-0.136-0.104-0.204-0.262-0.204-0.476c0-0.214,0.077-0.378,0.233-0.494c0.155-0.115,0.347-0.173,0.576-0.173
		c0.147,0,0.294,0.024,0.439,0.073c0.145,0.048,0.271,0.116,0.376,0.204l-0.208,0.294c-0.068-0.061-0.16-0.112-0.277-0.152
		C17.14,27.882,17.024,27.862,16.911,27.862"/>
</g>
<polygon style="fill:#3B546B;" points="29.853,15.763 29.853,16.13 28.621,16.13 28.621,16.74 29.728,16.74 29.728,17.087 
	28.621,17.087 28.621,17.705 29.893,17.705 29.893,18.071 28.232,18.071 28.232,15.763 "/>
<polygon style="fill:#3B546B;" points="4.943,17.425 5.458,15.764 5.808,15.764 6.323,17.425 6.905,15.764 7.324,15.764 
	6.518,18.072 6.132,18.072 5.646,16.49 5.62,16.49 5.134,18.072 4.748,18.072 3.942,15.764 4.362,15.764 "/>
<polygon style="fill:#FF0038;" points="14.908,14.908 18.926,18.927 24.586,9.249 "/>
<polygon style="fill:#63788A;" points="14.908,14.908 9.249,24.586 18.926,18.927 "/>
<g>
	<defs>
		<rect id="SVGID_5_" y="0" width="33.835" height="33.835"/>
	</defs>
	<clipPath id="SVGID_6_">
		<use xlink:href="#SVGID_5_"  style="overflow:visible;"/>
	</clipPath>
	<path style="clip-path:url(#SVGID_6_);fill:#3B546B;" d="M16.917,15.106c1.001,0,1.812,0.811,1.812,1.812
		c0,1-0.811,1.811-1.812,1.811s-1.812-0.811-1.812-1.811C15.105,15.917,15.916,15.106,16.917,15.106"/>
	<path style="clip-path:url(#SVGID_6_);fill:#2E4759;" d="M16.918,15.601c-0.033,0-0.061,0.016-0.093,0.019
		c0.578,0.05,1.036,0.52,1.036,1.111c0,0.624-0.506,1.129-1.13,1.129c-0.591,0-1.061-0.458-1.111-1.036
		c-0.002,0.032-0.018,0.06-0.018,0.093c0,0.727,0.589,1.316,1.316,1.316c0.727,0,1.316-0.589,1.316-1.316
		C18.234,16.19,17.645,15.601,16.918,15.601"/>
</g>
</svg>
