<?xml version="1.0" encoding="iso-8859-1"?>
<!-- Generator: Adobe Illustrator 22.0.1, SVG Export Plug-In . SVG Version: 6.00 Build 0)  -->
<svg version="1.1" id="Layer_1" xmlns="http://www.w3.org/2000/svg" xmlns:xlink="http://www.w3.org/1999/xlink" x="0px" y="0px"
	 viewBox="0 0 295.291 51.997" style="enable-background:new 0 0 295.291 51.997;" xml:space="preserve">
<g>
	<defs>
		<path id="SVGID_1_" d="M125.132,45.731l2.906-19.609c0.189-1.282,0.258-2.318,0.203-3.108c-0.054-0.791-0.186-1.41-0.397-1.859
			c-0.211-0.449-0.509-0.747-0.892-0.896c-0.383-0.15-0.789-0.225-1.217-0.225c-0.726,0-1.433,0.235-2.123,0.704
			c-0.689,0.47-1.194,1.068-1.515,1.795l-3.438,23.198h-7.69l4.748-32.042h6.088l0.376,3.525h0.192
			c0.824-1.239,1.914-2.253,3.27-3.043c1.356-0.791,2.867-1.186,4.534-1.186c1.41,0,2.705,0.341,3.885,1.025
			c1.18,0.683,1.879,1.88,2.095,3.589c0.863-1.495,2.015-2.638,3.456-3.428c1.442-0.791,2.932-1.186,4.47-1.186
			c1.153,0,2.165,0.16,3.037,0.48c0.871,0.321,1.588,0.887,2.151,1.698c0.564,0.812,0.924,1.912,1.081,3.3
			c0.158,1.389,0.075,3.173-0.248,5.351l-3.247,21.916h-7.69l3.039-20.507c0.285-1.922,0.175-3.269-0.331-4.037
			c-0.505-0.769-1.207-1.154-2.104-1.154c-0.768,0-1.458,0.182-2.066,0.545c-0.61,0.363-1.081,0.951-1.415,1.762l-3.466,23.39
			H125.132L125.132,45.731z M10.412,5.805C5.007,10.02,1.121,16.232,0.203,23.159C-1.478,35.856,7.453,46.15,20.15,46.15
			c4.678,0,9.214-1.399,13.163-3.799c1.509-5.965,5.103-11.292,9.909-15.596l2.792-2.501c0.065-0.363,0.123-0.728,0.171-1.096
			c0.26-1.964,0.266-3.871,0.043-5.69h-8.755l0.341-2.263c0.341-2.265,0.84-4.519,1.567-6.693c0.317-0.946,0.708-1.855,1.182-2.717
			c-3.545-3.48-8.486-5.598-14.197-5.628V0.167H26.24h0L3.287,0.168L10.412,5.805L10.412,5.805z M24.76,11.336
			c6.529,0,11.122,5.293,10.258,11.823c-0.865,6.529-6.86,11.823-13.388,11.823c-6.53,0-11.122-5.293-10.258-11.823
			C12.236,16.63,18.231,11.336,24.76,11.336L24.76,11.336z M39.763,15.5H51l0.256-1.937c0.172-1.292,0.407-2.336,0.705-3.132
			c0.3-0.797,0.639-1.411,1.019-1.841c0.38-0.431,0.773-0.721,1.181-0.872c0.408-0.15,0.827-0.226,1.256-0.226
			c0.947,0,1.653,0.366,2.116,1.098c0.463,0.732,0.566,2.067,0.309,4.004c-0.228,1.722-0.66,3.111-1.294,4.166
			c-0.635,1.055-1.611,2.164-2.927,3.326l-9.086,8.137c-7.733,7.026-10.987,15.434-9.791,23.774
			c5.158-4.85,11.367-6.272,17.606-6.272h13.118l1.197-9.042h-3.463H50.907c0.306-0.689,0.815-1.356,1.525-2.002
			c0.71-0.646,1.357-1.227,1.943-1.744l6.384-5.5c-0.068-1.439-0.006-2.917,0.193-4.423c0.85-6.417,4.066-12.275,8.669-16.676
			c-0.301-0.987-0.786-1.884-1.454-2.688c-0.947-1.141-2.324-2.034-4.134-2.68C62.223,0.323,59.812,0,56.798,0
			c-3.143,0-5.731,0.365-7.766,1.098c-2.034,0.732-3.68,1.776-4.936,3.132c-1.255,1.357-2.204,2.993-2.846,4.909
			C40.609,11.054,40.113,13.175,39.763,15.5L39.763,15.5z M88.939,0.167c-12.698,0-24.354,10.294-26.036,22.991
			c-0.558,4.212,0.054,8.16,1.582,11.555h4.411l-0.723,5.453c3.592,3.717,8.72,5.982,14.677,5.982
			c12.697,0,24.354-10.294,26.035-22.991c0.913-6.899-1.307-13.089-5.562-17.303l8.696-5.688
			C104.326,0.168,96.633,0.167,88.939,0.167L88.939,0.167z M87.46,11.336c6.529,0,11.122,5.293,10.258,11.823
			c-0.865,6.529-6.859,11.823-13.388,11.823c-6.53,0-11.122-5.293-10.258-11.823C74.936,16.63,80.931,11.336,87.46,11.336
			L87.46,11.336z M182.861,42.335c-0.631,0.512-1.421,1.015-2.37,1.506c-0.948,0.492-2.042,0.95-3.28,1.378
			c-1.238,0.427-2.58,0.769-4.029,1.026c-1.448,0.256-2.962,0.385-4.543,0.385c-2.734,0-5.123-0.385-7.167-1.153
			c-2.044-0.77-3.703-1.892-4.98-3.365c-1.277-1.474-2.156-3.247-2.64-5.319c-0.483-2.072-0.529-4.433-0.136-7.082
			c0.418-2.819,1.231-5.287,2.442-7.401c1.211-2.115,2.7-3.877,4.469-5.287c1.768-1.41,3.751-2.468,5.949-3.172
			c2.198-0.705,4.514-1.058,6.95-1.058c1.623,0,3.269,0.214,4.936,0.641c1.667,0.427,3.149,1.164,4.446,2.211
			c1.298,1.047,2.276,2.446,2.935,4.198c0.658,1.752,0.788,3.973,0.39,6.664c-0.272,1.837-0.78,3.824-1.524,5.959h-23.07
			c-0.16,1.368-0.042,2.522,0.352,3.461c0.395,0.94,0.986,1.709,1.773,2.307c0.787,0.598,1.726,1.036,2.817,1.314
			c1.091,0.278,2.277,0.417,3.559,0.417c2.563,0,4.711-0.3,6.446-0.897c1.733-0.598,3.175-1.324,4.327-2.179L182.861,42.335
			L182.861,42.335z M172.409,19.457c-1.111,0-2.18,0.149-3.208,0.459c-1.027,0.3-1.98,0.748-2.857,1.335
			c-0.877,0.587-1.637,1.314-2.279,2.189c-0.641,0.865-1.086,1.848-1.333,2.937h15.765c0.317-2.136-0.021-3.824-1.012-5.062
			C176.494,20.077,174.801,19.457,172.409,19.457L172.409,19.457z M212.844,0.873h13.393l-4.102,27.684
			c-0.475,3.205-0.772,6.366-0.893,9.485c-0.032,0.214-0.042,0.427-0.031,0.641h4.101l-1.045,7.049H213.95l-0.225-4.102h-0.257
			c-0.541,0.769-1.219,1.453-2.034,2.05c-0.815,0.599-1.704,1.122-2.668,1.57c-0.964,0.449-1.997,0.791-3.1,1.026
			c-1.103,0.235-2.188,0.353-3.256,0.353c-2.008,0-3.851-0.32-5.529-0.961c-1.678-0.641-3.079-1.634-4.204-2.98
			c-1.125-1.346-1.918-3.055-2.381-5.127c-0.462-2.072-0.484-4.518-0.066-7.338c0.406-2.734,1.183-5.169,2.332-7.304
			c1.15-2.136,2.571-3.941,4.263-5.415c1.692-1.474,3.601-2.606,5.726-3.397c2.125-0.79,4.384-1.185,6.776-1.185
			c1.325,0,2.563,0.074,3.716,0.224c1.153,0.149,2.131,0.395,2.935,0.737l0.883-5.959h-5.062L212.844,0.873L212.844,0.873z
			 M205.379,39.579c1.623,0,3.124-0.394,4.501-1.186c1.377-0.79,2.369-1.933,2.974-3.428l2.013-13.586
			c-0.529-0.47-1.298-0.823-2.31-1.058c-1.012-0.235-2.095-0.352-3.249-0.352c-1.153,0-2.303,0.192-3.449,0.577
			c-1.147,0.384-2.198,0.993-3.154,1.826c-0.956,0.833-1.779,1.912-2.466,3.236c-0.688,1.324-1.174,2.947-1.459,4.87
			c-0.405,2.734-0.046,4.934,1.073,6.601C200.973,38.746,202.815,39.579,205.379,39.579L205.379,39.579z M229.863,38.682h11.278
			l2.659-17.944h-11.278l1.044-7.049h19.609l-3.703,24.993h11.855l-1.044,7.049h-31.465L229.863,38.682L229.863,38.682z
			 M244.598,4.974c0.195-1.324,0.856-2.457,1.977-3.397c1.122-0.939,2.559-1.41,4.311-1.41c1.794,0,3.156,0.47,4.084,1.41
			c0.929,0.94,1.295,2.072,1.1,3.397c-0.202,1.367-0.904,2.488-2.101,3.364c-1.198,0.876-2.694,1.314-4.488,1.314
			c-1.752,0-3.054-0.438-3.906-1.314C244.72,7.463,244.396,6.341,244.598,4.974L244.598,4.974z M268.552,15.868
			c1.823-0.769,3.898-1.431,6.222-1.986c2.325-0.556,5.026-0.833,8.102-0.833c2.221,0,4.072,0.267,5.552,0.801
			s2.628,1.292,3.444,2.275c0.816,0.983,1.337,2.157,1.561,3.524c0.224,1.367,0.21,2.905-0.043,4.614
			c-0.323,2.179-0.673,4.037-1.051,5.575c-0.378,1.538-0.655,2.905-0.832,4.102c-0.132,0.897-0.238,1.901-0.318,3.011
			c-0.003,0.598-0.024,1.175-0.064,1.73h4.165l-1.045,7.049h-10.754l-0.198-4.357h-0.32c-1.04,1.323-2.427,2.467-4.14,3.428
			c-1.713,0.962-3.909,1.442-6.579,1.442c-3.183,0-5.588-0.855-7.203-2.564c-1.616-1.708-2.209-3.972-1.792-6.792
			c0.266-1.794,0.826-3.343,1.671-4.646c0.854-1.303,1.964-2.371,3.347-3.204c1.373-0.833,2.971-1.453,4.794-1.858
			c1.822-0.405,3.817-0.608,5.975-0.608c0.769,0,1.563,0.042,2.406,0.128c0.831,0.085,1.865,0.171,3.081,0.256
			c0.149-0.427,0.254-0.855,0.318-1.282l0.18-1.218c0.241-1.624-0.057-2.788-0.881-3.493c-0.825-0.704-2.151-1.058-3.977-1.058
			c-2.168,0-4.153,0.278-5.976,0.833c-1.824,0.556-3.369,1.111-4.637,1.667L268.552,15.868L268.552,15.868z M275.973,39.387
			c2.029,0,3.601-0.374,4.726-1.122c1.126-0.748,1.992-1.549,2.578-2.403l0.569-3.845c-0.415-0.085-1.031-0.181-1.858-0.288
			c-0.828-0.107-1.728-0.16-2.7-0.16c-0.801,0-1.612,0.074-2.447,0.224c-0.823,0.149-1.573,0.384-2.251,0.705
			c-0.688,0.321-1.252,0.737-1.713,1.25c-0.449,0.513-0.734,1.132-0.842,1.858c-0.177,1.196,0.038,2.125,0.634,2.787
			C273.266,39.056,274.37,39.387,275.973,39.387L275.973,39.387z"/>
	</defs>
	<clipPath id="SVGID_2_">
		<use xlink:href="#SVGID_1_"  style="overflow:visible;"/>
	</clipPath>
	<g style="clip-path:url(#SVGID_2_);">
		
			<image style="overflow:visible;" width="320" height="56" xlink:href="D:\[work]\_2019\[work]\_2019\_&#x438;&#x44E;&#x43B;&#x44C; 2019\[&#x41E;2&#x41E;]\O2O_LOGO\3\BG.jpg"  transform="matrix(1 0 0 1 -9.5708 -2.0017)">
		</image>
	</g>
</g>
</svg>
