<?xml version="1.0" encoding="iso-8859-1"?>
<!-- Generator: Adobe Illustrator 22.0.1, SVG Export Plug-In . SVG Version: 6.00 Build 0)  -->
<svg version="1.1" id="Layer_1" xmlns="http://www.w3.org/2000/svg" xmlns:xlink="http://www.w3.org/1999/xlink" x="0px" y="0px"
	 viewBox="0 0 23.171 34.757" style="enable-background:new 0 0 23.171 34.757;" xml:space="preserve">
<g>
	<defs>
		<rect id="SVGID_1_" y="0" width="23.171" height="34.757"/>
	</defs>
	<clipPath id="SVGID_2_">
		<use xlink:href="#SVGID_1_"  style="overflow:visible;"/>
	</clipPath>
	<path style="clip-path:url(#SVGID_2_);fill:#003C58;" d="M23.171,1.39v31.976c0,0.77-0.621,1.391-1.39,1.391H1.39
		c-0.769,0-1.39-0.621-1.39-1.391V1.39C0,0.621,0.621,0,1.39,0h20.391c0.704,0,1.283,0.523,1.376,1.2
		C23.166,1.265,23.171,1.325,23.171,1.39"/>
	<path style="clip-path:url(#SVGID_2_);fill:#003C58;" d="M23.171,1.39v31.976c0,0.77-0.621,1.391-1.39,1.391H1.39
		c-0.769,0-1.39-0.621-1.39-1.391v-1.001L23.157,1.2C23.166,1.265,23.171,1.325,23.171,1.39"/>
</g>
<rect x="1.7" y="3.576" style="fill:#637889;" width="19.772" height="26.341"/>
<polygon style="fill:#3B546B;" points="21.472,29.916 1.699,29.916 21.472,3.576 "/>
<g>
	<defs>
		<rect id="SVGID_3_" y="0" width="23.171" height="34.757"/>
	</defs>
	<clipPath id="SVGID_4_">
		<use xlink:href="#SVGID_3_"  style="overflow:visible;"/>
	</clipPath>
	<path style="clip-path:url(#SVGID_4_);fill:#D5D5DA;" d="M7.333,1.092c0.384,0,0.695,0.311,0.695,0.695
		c0,0.384-0.311,0.695-0.695,0.695c-0.384,0-0.695-0.311-0.695-0.695C6.638,1.403,6.949,1.092,7.333,1.092"/>
	<path style="clip-path:url(#SVGID_4_);fill:#D5D5DA;" d="M16.071,2.251H9.583c-0.256,0-0.463-0.207-0.463-0.463
		s0.207-0.464,0.463-0.464h6.488c0.256,0,0.463,0.208,0.463,0.464S16.327,2.251,16.071,2.251"/>
	<path style="clip-path:url(#SVGID_4_);fill:#637889;" d="M11.586,30.484c1.024,0,1.854,0.83,1.854,1.854
		c0,1.023-0.83,1.853-1.854,1.853s-1.854-0.83-1.854-1.853C9.732,31.314,10.562,30.484,11.586,30.484"/>
	<path style="clip-path:url(#SVGID_4_);fill:#DFE4E7;" d="M11.586,31.029c0.723,0,1.309,0.586,1.309,1.309
		c0,0.722-0.586,1.308-1.309,1.308c-0.723,0-1.309-0.586-1.309-1.308C10.277,31.615,10.863,31.029,11.586,31.029"/>
	<path style="clip-path:url(#SVGID_4_);fill:#FF0038;" d="M7.839,9.966c-0.118,0-0.233-0.064-0.291-0.177L6.912,8.557
		c-0.082-0.16-0.019-0.358,0.141-0.44c0.16-0.084,0.358-0.021,0.441,0.14l0.635,1.232c0.083,0.16,0.02,0.358-0.14,0.441
		C7.941,9.954,7.89,9.966,7.839,9.966"/>
	<path style="clip-path:url(#SVGID_4_);fill:#FF0038;" d="M10.917,9.966c-0.051,0-0.102-0.012-0.15-0.036
		c-0.16-0.083-0.223-0.281-0.14-0.441l0.635-1.232c0.083-0.161,0.28-0.224,0.441-0.14c0.16,0.082,0.223,0.28,0.141,0.44
		l-0.636,1.232C11.15,9.902,11.035,9.966,10.917,9.966"/>
	<path style="clip-path:url(#SVGID_4_);fill:#FF0038;" d="M9.378,8.852c-1.652,0-2.991,1.079-2.991,2.41h5.982
		C12.369,9.931,11.03,8.852,9.378,8.852"/>
	<path style="clip-path:url(#SVGID_4_);fill:#EAEFF1;" d="M8.288,9.896c0.206,0,0.374,0.167,0.374,0.374
		c0,0.206-0.168,0.374-0.374,0.374c-0.206,0-0.374-0.168-0.374-0.374C7.914,10.063,8.082,9.896,8.288,9.896"/>
	<path style="clip-path:url(#SVGID_4_);fill:#EAEFF1;" d="M10.469,9.896c0.206,0,0.374,0.167,0.374,0.374
		c0,0.206-0.168,0.374-0.374,0.374c-0.206,0-0.374-0.168-0.374-0.374C10.095,10.063,10.263,9.896,10.469,9.896"/>
	<path style="clip-path:url(#SVGID_4_);fill:#FF0038;" d="M6.387,11.18v4.518c0,0.31,0.251,0.561,0.561,0.561h0.33v1.747
		c0,0.268,0.217,0.486,0.486,0.486c0.268,0,0.485-0.218,0.485-0.486v-1.747h2.257v1.747c0,0.268,0.217,0.486,0.486,0.486
		c0.268,0,0.486-0.218,0.486-0.486v-1.747h0.33c0.309,0,0.56-0.251,0.56-0.561V11.18H6.387z"/>
	<path style="clip-path:url(#SVGID_4_);fill:#FF0038;" d="M13.49,14.252h-0.115c-0.175,0-0.316-0.142-0.316-0.316v-2.439
		c0-0.175,0.141-0.317,0.316-0.317h0.115c0.175,0,0.316,0.142,0.316,0.317v2.439C13.806,14.11,13.665,14.252,13.49,14.252"/>
	<path style="clip-path:url(#SVGID_4_);fill:#FF0038;" d="M5.381,14.252H5.266c-0.175,0-0.316-0.142-0.316-0.316v-2.439
		c0-0.175,0.141-0.317,0.316-0.317h0.115c0.175,0,0.316,0.142,0.316,0.317v2.439C5.697,14.11,5.556,14.252,5.381,14.252"/>
	<path style="clip-path:url(#SVGID_4_);fill:#FFFFFF;" d="M16.761,20.495c0-1.033,0.767-1.885,1.762-2.023
		c-0.506-1.153-1.587-1.764-2.839-1.764c-0.446,0-0.871,0.116-1.255,0.326c-0.163,0.088-0.357,0.088-0.52,0
		c-0.384-0.21-0.809-0.326-1.256-0.326c-1.736,0-3.144,1.175-3.144,3.343s1.408,4.507,3.144,4.507c0.345,0,0.677-0.069,0.988-0.198
		c0.339-0.14,0.717-0.14,1.056,0c0.31,0.129,0.642,0.198,0.987,0.198c1.074,0,2.022-0.895,2.589-2.091
		C17.402,22.233,16.761,21.44,16.761,20.495"/>
	<path style="clip-path:url(#SVGID_4_);fill:#FFFFFF;" d="M14.016,16.036L14.016,16.036c1.479,0,2.678-1.199,2.678-2.678
		C15.215,13.358,14.016,14.557,14.016,16.036"/>
</g>
</svg>
